F:\nishant\webWorkspace\SpringBootClient\src\main\java\com\springboot\client\controller\PayloadDataController.java
F:\nishant\webWorkspace\SpringBootClient\src\main\java\com\springboot\client\payload\PayloadData.java
F:\nishant\webWorkspace\SpringBootClient\src\main\java\com\springboot\client\executors\PayloadDataExecutor.java
F:\nishant\webWorkspace\SpringBootClient\src\main\java\com\springboot\client\SpringBootClientApplication.java
